[
   {
        "id":"homepage",
        "blocks":[
            {
                "sortOrder":100,
                "format":"slider",
                "items":[
                    {
                        "tag":"priceactions_promoheels",
                        "sortOrder":100,
                        "imageDesktop":"homepage/flashheelsdesktop.jpg",
                        "imageMobile":"homepage/FlashDealsMobile-heels.jpg"
                    },
                    {
                        "tag":"whatistheoccasion",
                        "sortOrder":120,
                        "imageDesktop":"homepage/BestDressedDesktop.jpg",
                        "imageMobile":"homepage/BestDressedMobile.jpg"
                    },
                    {
                        "tag":"newarrivals4",
                        "sortOrder":400,
                        "imageDesktop":"homepage/BrandNewDesktop.jpg",
                        "imageMobile":"homepage/BrandNewMobile.jpg"
                    }
                ]
            },
            {
                "sortOrder":200,
                "title": "Top Sellers",
                "format":"topsellers",
                "items":[
                    {
                        "tag": "allinone1",
                        "sortOrder":100,
                        "title":"All in One",
                        "hideMobile":1,
                        "imageDesktop":"homepage/Allinonerevised.jpg",
                        "imageMobile":"homepage/Allinonerevised.jpg"
                    },
                    {
                        "tag":"topseller",
                        "sortOrder":200,
                        "title":"What's Hot",
                        "imageDesktop":"homepage/hot18.gif",
                        "imageMobile":"homepage/hot18.gif"
                    },
                    {
                        "tag": "festival",
                        "sortOrder":100,
                        "title":"Lound & Live",
                        "hideMobile":1,
                        "imageDesktop": "homepage/LoudAndLive.jpg",
                        "imageMobile": "homepage/LoudAndLive.jpg"
                    }

                ]
            },
            {
                "sortOrder":300,
                "title": "Collections",
                "format":"events",
                "items":[
                    {
                        "tag": "bagitup",
                        "title": "Bag It Up",
                        "imageDesktop": "_events/bag300.jpg",
                        "imageMobile": "_events/bag600.jpg",
                        "sortOrder": "100"
                    },
                    {
                        "tag": "makeasplash1",
                        "title": "Make A Splash",
                        "imageDesktop": "_events/Slot2-TheHolidayPick300.jpg",
                        "imageMobile": "_events/Slot2-TheHolidayPick600.jpg",
                        "sortOrder": "150"
                    },
                    {
                        "tag": "denimcollection18",
                        "title": "Denim Alert",
                        "imageDesktop": "_events/Slot1-DenimAlert300.jpg",
                        "imageMobile": "_events/Slot1-DenimAlert600.jpg",
                        "sortOrder": "250"
                    },
                    {
                        "tag": "bestdeals",
                        "title": "Sweet Deals",
                        "imageDesktop": "_events/SweetDeals300x300.jpg",
                        "imageMobile": "_events/SweetDeals600x600.jpg",
                        "sortOrder": "300"
                    }
                ]
            },
            {
                "sortOrder":350,
                "title": "Shop The Look",
                "format":"shopthelook",
                "items":[
                    {
                        "tag": "getairy",
                        "title": "Get The Style",
                        "imageDesktop": "_events/Get-the-style-5.jpg",
                        "imageMobile": "_events/Get-the-style-5.jpg",
                        "sortOrder": "100"
                    },
                    {
                        "tag": "thebustedstyle",
                        "title": "Get The Style",
                        "imageDesktop": "_events/Get-the-style-3.jpg",
                        "imageMobile": "_events/Get-the-style-3.jpg",
                        "sortOrder": "200"
                    },
                    {
                        "tag": "hitthestreetstyle",
                        "title": "Get The Style",
                        "imageDesktop": "_events/Get-the-style-4.jpg",
                        "imageMobile": "_events/Get-the-style-4.jpg",
                        "sortOrder": "300"
                    },
                    {
                        "tag": "thefloatystyle",
                        "title": "Get The Style",
                        "imageDesktop": "_events/Get-the-style-2.jpg",
                        "imageMobile": "_events/Get-the-style-2.jpg",
                        "sortOrder": "400"
                    }
                ]
            },
            {
                "sortOrder":400,
                "title": "Celebrity Looks",
                "format":"products",
                "tag": "celeblooks"
            },
            {
                "sortOrder":500,
                "title": "InstaShop",
                "format":"instashop",
                "items":[
                    {
                        "tag": "blacksockboot",
                        "sortOrder": "92"
                    },
                    {
                        "tag": "simpleanklestrap",
                        "sortOrder": "92"
                    },
                    {
                        "tag": "tashawhiteheels",
                        "sortOrder": "92"
                    },
                    {
                        "tag": "honeytee",
                        "sortOrder": "92"
                    },
                    {
                        "tag": "tallulahwhitelace",
                        "sortOrder": "92"
                    },
                    {
                        "tag": "sidestripebuttonup",
                        "sortOrder": "92"
                    },
                    {
                        "tag": "starblouseblack",
                        "sortOrder": "92"
                    },
                    {
                        "tag": "snakebootswithred",
                        "sortOrder": "92"
                    },
                    {
                        "tag": "vinylleggings",
                        "sortOrder": "92"
                    },
                    {
                        "tag": "blacklittletasslebag",
                        "sortOrder": "92"
                    },
                    {
                        "tag": "lydiabodysuit",
                        "sortOrder": "92"
                    },
                    {
                        "tag": "pollygreyfeather",
                        "sortOrder": "92"
                    },
                    {
                        "tag": "bowfrontslipon",
                        "sortOrder": "92"
                    },
                    {
                        "tag": "hunwhitetee",
                        "sortOrder": "92"
                    },
                    {
                        "tag": "tionabodysuit",
                        "sortOrder": "92"
                    },
                    {
                        "tag": "snakeboots",
                        "sortOrder": "92"
                    },
                    {
                        "tag": "goldstartop",
                        "sortOrder": "92"
                    },
                    {
                        "tag": "okwhitetee",
                        "sortOrder": "92"
                    },
                    {
                        "tag": "blouseandheels",
                        "sortOrder": "92"
                    },
                    {
                        "tag": "whiteankleboots",
                        "sortOrder": "92"
                    },
                    {
                        "tag": "gladiatorhighheels",
                        "sortOrder": "92"
                    },
                    {
                        "tag": "stacietasselclutchbaginpink",
                        "sortOrder": "92"
                    },
                    {
                        "tag": "daisyblackperspexankleboots",
                        "sortOrder": "92"
                    },
                    {
                        "tag": "amourslogansweatshirtjumperblack",
                        "sortOrder": "92"
                    },
                    {
                        "tag": "issypinkcrochetbralettetop",
                        "sortOrder": "92"
                    },
                    {
                        "tag": "vneckjumper",
                        "sortOrder": "92"
                    },
                    {
                        "tag": "okbyewhiteteeblack",
                        "sortOrder": "92"
                    },
                    {
                        "tag": "londynembellishedcrossbodybaginburgundy",
                        "sortOrder": "92"
                    },
                    {
                        "tag": "lissyburgundystuddedbuckleankleboots",
                        "sortOrder": "92"
                    },
                    {
                        "tag": "redshortfauxfurjacket",
                        "sortOrder": "92"
                    },
                    {
                        "tag": "londynembellishedcrossbodybaginblack",
                        "sortOrder": "92"
                    },
                    {
                        "tag": "retrogradelaceuphikinganklebootsinpinkfauxsuede",
                        "sortOrder": "92"
                    },
                    {
                        "tag": "corduroycroppedbikerjacketcamelbrown",
                        "sortOrder": "92"
                    },
                    {
                        "tag": "fauxsuedewesternbuckleheeledanklebootsblack",
                        "sortOrder": "92"
                    },
                    {
                        "tag": "tashablackpointedtoeheeledankleboots",
                        "sortOrder": "92"
                    },
                    {
                        "tag": "complicatedstilettoanklebootsinnudesnakepu",
                        "sortOrder": "92"
                    },
                    {
                        "tag": "rippedasymmetricdenimskirt",
                        "sortOrder": "92"
                    },
                    {
                        "tag": "milanwhiteoversizedtshirt",
                        "sortOrder": "92"
                    },
                    {
                        "tag": "blackbuttonfrontfauxleatherskirt",
                        "sortOrder": "92"
                    },
                    {
                        "tag": "tiefrontplungeneckchokerdetaildress",
                        "sortOrder": "92"
                    },
                    {
                        "tag": "metallicpointedtoeanklebootinpink",
                        "sortOrder": "92"
                    },
                    {
                        "tag": "cocofauxfurpinkcoat",
                        "sortOrder": "92"
                    },
                    {
                        "tag": "sofiapinksatinbodysuit",
                        "sortOrder": "92"
                    },
                    {
                        "tag": "islablackperspexankleboot",
                        "sortOrder": "92"
                    },
                    {
                        "tag": "jennylongbobfullheadwigingoldenblonde",
                        "sortOrder": "92"
                    },
                    {
                        "tag": "pollyblackfeatherhandbag",
                        "sortOrder": "92"
                    },
                    {
                        "tag": "meghanblackfauxsuedechelseablockheelankleboots",
                        "sortOrder": "92"
                    },
                    {
                        "tag": "lissyblackstuddedbuckleankleboots",
                        "sortOrder": "92"
                    },
                    {
                        "tag": "highoverthekneetiebackfauxsuedebootsblack",
                        "sortOrder": "92"
                    },
                    {
                        "tag": "classicsquaretoeanklebootinchocolatecrushvelvet",
                        "sortOrder": "92"
                    },
                    {
                        "tag": "leilarockstudanklestrapsandalinrosegold",
                        "sortOrder": "92"
                    },
                    {
                        "tag": "chunkyplatformpearlfeaturelaceupbikerboots",
                        "sortOrder": "92"
                    },
                    {
                        "tag": "leopardprintoversizedlonglineblazerjacketbrown",
                        "sortOrder": "92"
                    },
                    {
                        "tag": "thighhighsuedechunkyblockheeledlongbootsblack",
                        "sortOrder": "92"
                    },
                    {
                        "tag": "polkadotbowtiefrontfrillminidressblack",
                        "sortOrder": "92"
                    },
                    {
                        "tag": "florenceblackfrillanklestrapbarelythereheeledsandals",
                        "sortOrder": "92"
                    },
                    {
                        "tag": "novaburgundysatinfloralprintbodysuit",
                        "sortOrder": "92"
                    },
                    {
                        "tag": "redsuedeblockheelpointedsockboots",
                        "sortOrder": "92"
                    },
                    {
                        "tag": "livblacksuedepointedheeledbootdoublebuckle",
                        "sortOrder": "92"
                    },
                    {
                        "tag": "albypearlheelanklebootinblackpu",
                        "sortOrder": "92"
                    },
                    {
                        "tag": "blackknitstretchboots",
                        "sortOrder": "92"
                    },
                    {
                        "tag": "chrissiefauxhandbag",
                        "sortOrder": "92"
                    },
                    {
                        "tag": "alicesatinblockmules",
                        "sortOrder": "92"
                    },
                    {
                        "tag": "stacieclutchbag",
                        "sortOrder": "92"
                    },
                    {
                        "tag": "briannaheeledboot",
                        "sortOrder": "92"
                    },
                    {
                        "tag": "mahilastrapsandal",
                        "sortOrder": "92"
                    },
                    {
                        "tag": "marandaheeledboot",
                        "sortOrder": "92"
                    },
                    {
                        "tag": "suedesockboot",
                        "sortOrder": "92"
                    },
                    {
                        "tag": "polkadotbardottop",
                        "sortOrder": "92"
                    },
                    {
                        "tag": "broderieanglaisedress",
                        "sortOrder": "92"
                    },
                    {
                        "tag": "chunkyplatformbikerboots",
                        "sortOrder": "92"
                    },
                    {
                        "tag": "willownudeboots",
                        "sortOrder": "92"
                    },
                    {
                        "tag": "phoenixpinkombreheels",
                        "sortOrder": "92"
                    },
                    {
                        "tag": "ibizagoldcoverup",
                        "sortOrder": "92"
                    },
                    {
                        "tag": "aleahkhakiboots",
                        "sortOrder": "92"
                    },
                    {
                        "tag": "frankierosegoldwingheels",
                        "sortOrder": "92"
                    },
                    {
                        "tag": "chrissiesnakeskinhandbag",
                        "sortOrder": "92"
                    },
                    {
                        "tag": "astonpatentcourtheel",
                        "sortOrder": "92"
                    },
                    {
                        "tag": "burgundysuedecoord",
                        "sortOrder": "92"
                    },
                    {
                        "tag": "kigascarfprintshirtdress",
                        "sortOrder": "92"
                    },
                    {
                        "tag": "mariahnappaankleboot",
                        "sortOrder": "92"
                    },
                    {
                        "tag": "novawhitefloralbodysuit",
                        "sortOrder": "92"
                    },
                    {
                        "tag": "kendrashoeboot",
                        "sortOrder": "92"
                    },
                    {
                        "tag": "cruzblackarmyboot",
                        "sortOrder": "92"
                    },
                    {
                        "tag": "miuwhitelacebodysuit",
                        "sortOrder": "92"
                    },
                    {
                        "tag": "sweetierosegoldheels",
                        "sortOrder": "92"
                    },
                    {
                        "tag": "hilowtasselboots",
                        "sortOrder": "92"
                    },
                    {
                        "tag": "thighhighchunkyboots",
                        "sortOrder": "92"
                    },
                    {
                        "tag": "blacksuedesockboot",
                        "sortOrder": "92"
                    },
                    {
                        "tag": "jessonblackcoord",
                        "sortOrder": "92"
                    },
                    {
                        "tag": "leiablockheelboot",
                        "sortOrder": "92"
                    },
                    {
                        "tag": "stripewrapoverbodysuit",
                        "sortOrder": "92"
                    },
                    {
                        "tag": "cruzmilitarybootie",
                        "sortOrder": "92"
                    },
                    {
                        "tag": "sofiablacksuedeheeledboot",
                        "sortOrder": "92"
                    },
                    {
                        "tag": "whizzhighshineopensidesboots",
                        "sortOrder": "92"
                    },
                    {
                        "tag": "highnecklaceminiskaterdress",
                        "sortOrder": "92"
                    },
                    {
                        "tag": "jodiediamanteheels",
                        "sortOrder": "92"
                    },
                    {
                        "tag": "chainlacebikerboot",
                        "sortOrder": "92"
                    },
                    {
                        "tag": "stormdiamantechoker",
                        "sortOrder": "92"
                    },
                    {
                        "tag": "fauxleatherpointedtoeankleboot",
                        "sortOrder": "92"
                    },
                    {
                        "tag": "mandysuedekneehigh",
                        "sortOrder": "92"
                    },
                    {
                        "tag": "corsetfrontpeeptoeheel",
                        "sortOrder": "92"
                    },
                    {
                        "tag": "cruzmilitarystyleboot",
                        "sortOrder": "92"
                    },
                    {
                        "tag": "jewelfeatureankleboot",
                        "sortOrder": "92"
                    },
                    {
                        "tag": "kandeeankleboot",
                        "sortOrder": "92"
                    },
                    {
                        "tag": "shaggylushcoat",
                        "sortOrder": "92"
                    },
                    {
                        "tag": "ameliatwistjumper",
                        "sortOrder": "92"
                    },
                    {
                        "tag": "phoenixmochacourtheels",
                        "sortOrder": "92"
                    },
                    {
                        "tag": "parrisburgundyclutchbag",
                        "sortOrder": "92"
                    },
                    {
                        "tag": "diamanteembellishedjeans",
                        "sortOrder": "92"
                    },
                    {
                        "tag": "whizzhighshinebooties",
                        "sortOrder": "92"
                    },
                    {
                        "tag": "novagreensatinbodysuit",
                        "sortOrder": "92"
                    },
                    {
                        "tag": "pointedstilettostretchsockboots",
                        "sortOrder": "92"
                    },
                    {
                        "tag": "pollyblackfeatherhandbag",
                        "sortOrder": "92"
                    },
                    {
                        "tag": "sofiablockheeledboot",
                        "sortOrder": "92"
                    },
                    {
                        "tag": "lesliemirrorstilettoankleboots",
                        "sortOrder": "92"
                    },
                    {
                        "tag": "sweetiestilettos",
                        "sortOrder": "92"
                    },
                    {
                        "tag": "shortfloraldenimjacket",
                        "sortOrder": "92"
                    },
                    {
                        "tag": "briannanappaankleboot",
                        "sortOrder": "92"
                    },
                    {
                        "tag": "crochetlacebodycon",
                        "sortOrder": "92"
                    },
                    {
                        "tag": "ariawhitelacebodysuit",
                        "sortOrder": "92"
                    },
                    {
                        "tag": "blackknitheeledboots",
                        "sortOrder": "92"
                    },
                    {
                        "tag": "phoenixmochaheels",
                        "sortOrder": "92"
                    },
                    {
                        "tag": "stellalargegoldearrings",
                        "sortOrder": "92"
                    },
                    {
                        "tag": "houndstoothoversizedjacket",
                        "sortOrder": "92"
                    },
                    {
                        "tag": "ariawhitelacebodysuit",
                        "sortOrder": "92"
                    },
                    {
                        "tag": "blackknitheeledboots",
                        "sortOrder": "92"
                    },
                    {
                        "tag": "phoenixmochaheels",
                        "sortOrder": "92"
                    },
                    {
                        "tag": "stellalargegoldearrings",
                        "sortOrder": "92"
                    },
                    {
                        "tag": "bardotfrilldress",
                        "sortOrder": "92"
                    },
                    {
                        "tag": "novaburgundyplaysuit",
                        "sortOrder": "92"
                    },
                    {
                        "tag": "astonredheels",
                        "sortOrder": "92"
                    },
                    {
                        "tag": "redcoordinate",
                        "sortOrder": "92"
                    },
                    {
                        "tag": "redsuedefrillheels",
                        "sortOrder": "92"
                    },
                    {
                        "tag": "distressedhemknit",
                        "sortOrder": "92"
                    },
                    {
                        "tag": "greyfluffycoat",
                        "sortOrder": "92"
                    },
                    {
                        "tag": "highneckcableknit",
                        "sortOrder": "92"
                    },
                    {
                        "tag": "blockoverthekneeboots",
                        "sortOrder": "92"
                    },
                    {
                        "tag": "fauxfurmustardjumper",
                        "sortOrder": "92"
                    },
                    {
                        "tag": "londynembellishedxbodybag",
                        "sortOrder": "92"
                    },
                    {
                        "tag": "whizzhighshineboots",
                        "sortOrder": "92"
                    },
                    {
                        "tag": "orientalheronblouse",
                        "sortOrder": "92"
                    },
                    {
                        "tag": "kandeenappaankleboot",
                        "sortOrder": "92"
                    },
                    {
                        "tag": "patentpointedboots",
                        "sortOrder": "92"
                    },
                    {
                        "tag": "piperblockankleboot",
                        "sortOrder": "92"
                    },
                    {
                        "tag": "blushfauxfurcoat",
                        "sortOrder": "92"
                    },
                    {
                        "tag": "velvetcirclebelt",
                        "sortOrder": "92"
                    },
                    {
                        "tag": "shaggymultifurcoat",
                        "sortOrder": "92"
                    },
                    {
                        "tag": "embroideredsleevesweat",
                        "sortOrder": "92"
                    },
                    {
                        "tag": "whizzhighshineankleboot",
                        "sortOrder": "92"
                    },
                    {
                        "tag": "croppedfauxsuedejacket",
                        "sortOrder": "92"
                    },
                    {
                        "tag": "greyelenasockboot",
                        "sortOrder": "92"
                    },
                    {
                        "tag": "knittedankleboot",
                        "sortOrder": "92"
                    },
                    {
                        "tag": "stripebodysuit",
                        "sortOrder": "92"
                    },
                    {
                        "tag": "auroraankleboots",
                        "sortOrder": "92"
                    },
                    {
                        "tag": "angelaslouchboots",
                        "sortOrder": "92"
                    },
                    {
                        "tag": "bardotknittedfrilljumper",
                        "sortOrder": "92"
                    },
                    {
                        "tag": "mustardfauxfurjumper",
                        "sortOrder": "92"
                    },
                    {
                        "tag": "pointedtoeankleboots",
                        "sortOrder": "92"
                    },
                    {
                        "tag": "pollyfeatherbag",
                        "sortOrder": "92"
                    },
                    {
                        "tag": "alisonglitterclutch",
                        "sortOrder": "92"
                    },
                    {
                        "tag": "houndstoothblazer",
                        "sortOrder": "92"
                    },
                    {
                        "tag": "aspenleggings",
                        "sortOrder": "92"
                    },
                    {
                        "tag": "goldchainmaildress",
                        "sortOrder": "92"
                    },
                    {
                        "tag": "jewelstilettoheels",
                        "sortOrder": "92"
                    },
                    {
                        "tag": "croppufferjacket",
                        "sortOrder": "92"
                    },
                    {
                        "tag": "ameliajumper",
                        "sortOrder": "92"
                    },
                    {
                        "tag": "vinylpatentleggings",
                        "sortOrder": "92"
                    },
                    {
                        "tag": "metallicpointedboots",
                        "sortOrder": "92"
                    },
                    {
                        "tag": "blushsatinandlace",
                        "sortOrder": "92"
                    },
                    {
                        "tag": "studdedpointedthighhighs",
                        "sortOrder": "92"
                    },
                    {
                        "tag": "contraststripedetailleggings",
                        "sortOrder": "92"
                    },
                    {
                        "tag": "highshinepatentleggings",
                        "sortOrder": "92"
                    },
                    {
                        "tag": "jadagreensatindress",
                        "sortOrder": "92"
                    },
                    {
                        "tag": "blackginghamcheckdress",
                        "sortOrder": "92"
                    },
                    {
                        "tag": "silvermetalliclurexleggings",
                        "sortOrder": "92"
                    },
                    {
                        "tag": "chrissiefauxsnakeskinhandbag",
                        "sortOrder": "92"
                    },
                    {
                        "tag": "blushsatinandlace",
                        "sortOrder": "92"
                    },
                    {
                        "tag": "fauxfurstripegiletjacket",
                        "sortOrder": "92"
                    },
                    {
                        "tag": "lesliemirrorankleboots",
                        "sortOrder": "92"
                    },
                    {
                        "tag": "croppedplushjacket",
                        "sortOrder": "92"
                    },
                    {
                        "tag": "fauxfurcollarshaggycoat",
                        "sortOrder": "92"
                    },
                    {
                        "tag": "stripedfrillhembardottop",
                        "sortOrder": "92"
                    },
                    {
                        "tag": "redleatherlookleggings",
                        "sortOrder": "92"
                    },
                    {
                        "tag": "greytartandusterjacket",
                        "sortOrder": "92"
                    },
                    {
                        "tag": "fauxfursliponmules",
                        "sortOrder": "92"
                    },
                    {
                        "tag": "pointedmetallicankleboots",
                        "sortOrder": "92"
                    },
                    {
                        "tag": "angelinaanklebootswestern",
                        "sortOrder": "92"
                    },
                    {
                        "tag": "ginghamfloraltiefrontblouse",
                        "sortOrder": "92"
                    },
                    {
                        "tag": "camilaruchedthighhigh",
                        "sortOrder": "92"
                    },
                    {
                        "tag": "elenasockbootie",
                        "sortOrder": "92"
                    },
                    {
                        "tag": "larissathighhighs",
                        "sortOrder": "92"
                    },
                    {
                        "tag": "angelinaanklebootstuds",
                        "sortOrder": "92"
                    },
                    {
                        "tag": "elenasockbootstiletto",
                        "sortOrder": "92"
                    },
                    {
                        "tag": "parrisfurryboxclutch",
                        "sortOrder": "92"
                    },
                    {
                        "tag": "oversizedwhitedenimjacket",
                        "sortOrder": "92"
                    },
                    {
                        "tag": "hallecrossovermule",
                        "sortOrder": "92"
                    },
                    {
                        "tag": "stacietasselclutch",
                        "sortOrder": "92"
                    },
                    {
                        "tag": "redfauxfurcoat",
                        "sortOrder": "92"
                    },
                    {
                        "tag": "redcrochetshiftdress",
                        "sortOrder": "92"
                    },
                    {
                        "tag": "winepleatdress",
                        "sortOrder": "92"
                    },
                    {
                        "tag": "whitewavymules",
                        "sortOrder": "92"
                    },
                    {
                        "tag": "stackedheelchainboot",
                        "sortOrder": "92"
                    },
                    {
                        "tag": "stripedoversizedjumperdress",
                        "sortOrder": "92"
                    },
                    {
                        "tag": "laceupthighhighs2",
                        "sortOrder": "92"
                    },
                    {
                        "tag": "blacklondynembellishedbag",
                        "sortOrder": "92"
                    },
                    {
                        "tag": "angelasequinslouchboots",
                        "sortOrder": "92"
                    },
                    {
                        "tag": "tiasatinblockheels2",
                        "sortOrder": "92"
                    },
                    {
                        "tag": "metalliclurexstripeleggings",
                        "sortOrder": "92"
                    },
                    {
                        "tag": "pinksequinminidress2",
                        "sortOrder": "92"
                    },
                    {
                        "tag": "studoversizeddenimjacket",
                        "sortOrder": "92"
                    },
                    {
                        "tag": "pleatedpalazzotrousers",
                        "sortOrder": "92"
                    },
                    {
                        "tag": "allypearlstudheel",
                        "sortOrder": "92"
                    },
                    {
                        "tag": "nataliestripedbodysuit",
                        "sortOrder": "92"
                    },
                    {
                        "tag": "zararedtasselearrings",
                        "sortOrder": "92"
                    },
                    {
                        "tag": "silversequinminidress",
                        "sortOrder": "92"
                    },
                    {
                        "tag": "blacksuedesockboots",
                        "sortOrder": "92"
                    },
                    {
                        "tag": "patentnudeankleboots",
                        "sortOrder": "92"
                    },
                    {
                        "tag": "whitestripedoversizedsweat",
                        "sortOrder": "92"
                    },
                    {
                        "tag": "katieblockheeledplatforms",
                        "sortOrder": "92"
                    },
                    {
                        "tag": "guiltytee",
                        "sortOrder": "92"
                    },
                    {
                        "tag": "montanataupestuddedheels",
                        "sortOrder": "92"
                    },
                    {
                        "tag": "ginghamtaperedtrousers",
                        "sortOrder": "92"
                    },
                    {
                        "tag": "lianacrossfrontbardot",
                        "sortOrder": "92"
                    },
                    {
                        "tag": "lillyembroideredsuedeskirt",
                        "sortOrder": "92"
                    },
                    {
                        "tag": "antoniapearlankleboot",
                        "sortOrder": "92"
                    },
                    {
                        "tag": "avastudpointedboots",
                        "sortOrder": "92"
                    },
                    {
                        "tag": "davidasockheeledankleboots",
                        "sortOrder": "92"
                    },
                    {
                        "tag": "ginghamfrillshorts",
                        "sortOrder": "92"
                    },
                    {
                        "tag": "mellissasequinsandals",
                        "sortOrder": "92"
                    },
                    {
                        "tag": "chunkybaseunitboot",
                        "sortOrder": "92"
                    },
                    {
                        "tag": "wistlethighhighs",
                        "sortOrder": "92"
                    },
                    {
                        "tag": "statementsparkleheels",
                        "sortOrder": "92"
                    },
                    {
                        "tag": "pinkfauxleathercrossbody",
                        "sortOrder": "92"
                    },
                    {
                        "tag": "ambersuedethighhighs",
                        "sortOrder": "92"
                    },
                    {
                        "tag": "orangefloralbodysuit",
                        "sortOrder": "92"
                    },
                    {
                        "tag": "embellishedflatpumps",
                        "sortOrder": "92"
                    },
                    {
                        "tag": "emerystuddedstilettos",
                        "sortOrder": "92"
                    },
                    {
                        "tag": "bonitanappaankleboot",
                        "sortOrder": "92"
                    },
                    {
                        "tag": "allypearlstudembellishedheels",
                        "sortOrder": "92"
                    },
                    {
                        "tag": "shaggyfurlongcoat",
                        "sortOrder": "92"
                    },
                    {
                        "tag": "floralbellsleevewrapdress",
                        "sortOrder": "92"
                    },
                    {
                        "tag": "moshburgundyankleboots",
                        "sortOrder": "92"
                    },
                    {
                        "tag": "redandgreenstripedbodysuit",
                        "sortOrder": "92"
                    },
                    {
                        "tag": "sierradiamontestrapheels",
                        "sortOrder": "92"
                    },
                    {
                        "tag": "ameliatwistfrontjumper",
                        "sortOrder": "92"
                    },
                    {
                        "tag": "brookefauxleatherclutch",
                        "sortOrder": "92"
                    },
                    {
                        "tag": "linzichelseaboots",
                        "sortOrder": "92"
                    },
                    {
                        "tag": "aliciablackankleboots",
                        "sortOrder": "92"
                    },
                    {
                        "tag": "embroideredblockheelsandal",
                        "sortOrder": "92"
                    },
                    {
                        "tag": "libresuedethighhighs",
                        "sortOrder": "92"
                    },
                    {
                        "tag": "reddorsaypumps",
                        "sortOrder": "92"
                    },
                    {
                        "tag": "lianabardottop",
                        "sortOrder": "92"
                    },
                    {
                        "tag": "lanicrocchelseaboots",
                        "sortOrder": "92"
                    },
                    {
                        "tag": "blacksuedetteankleboots",
                        "sortOrder": "92"
                    },
                    {
                        "tag": "blackbuckleplatformboots",
                        "sortOrder": "92"
                    },
                    {
                        "tag": "printedfloralwrapdress",
                        "sortOrder": "92"
                    },
                    {
                        "tag": "estherstuddedstilettoheels",
                        "sortOrder": "92"
                    },
                    {
                        "tag": "zoestuddedankleboots",
                        "sortOrder": "92"
                    },
                    {
                        "tag": "checkedwoolmixcoat",
                        "sortOrder": "92"
                    },
                    {
                        "tag": "coryblacklaceupheels",
                        "sortOrder": "92"
                    },
                    {
                        "tag": "veronavinylleggings",
                        "sortOrder": "92"
                    },
                    {
                        "tag": "redfluffyhandbag2",
                        "sortOrder": "92"
                    },
                    {
                        "tag": "blackfluffyhandbag",
                        "sortOrder": "92"
                    },
                    {
                        "tag": "blockheelankleboots",
                        "sortOrder": "92"
                    },
                    {
                        "tag": "blackretrohandbag",
                        "sortOrder": "92"
                    },
                    {
                        "tag": "floralhighneckplaysuit",
                        "sortOrder": "92"
                    },
                    {
                        "tag": "ruchedheeledthighhighboots",
                        "sortOrder": "92"
                    },
                    {
                        "tag": "meshembroideredbodycondress",
                        "sortOrder": "92"
                    },
                    {
                        "tag": "taupeankleboots",
                        "sortOrder": "92"
                    },
                    {
                        "tag": "floralruchedcroptop",
                        "sortOrder": "92"
                    },
                    {
                        "tag": "oatmealbardotjumper",
                        "sortOrder": "92"
                    },
                    {
                        "tag": "rosegoldjewelledsandals",
                        "sortOrder": "92"
                    },
                    {
                        "tag": "embroideryblockheels",
                        "sortOrder": "92"
                    },
                    {
                        "tag": "ginghamfrilldress",
                        "sortOrder": "92"
                    },
                    {
                        "tag": "mirrorpointedboots",
                        "sortOrder": "92"
                    },
                    {
                        "tag": "redfluffyhandbag",
                        "sortOrder": "92"
                    },
                    {
                        "tag": "blushblockheels",
                        "sortOrder": "92"
                    },
                    {
                        "tag": "pinkcrochandbag",
                        "sortOrder": "92"
                    },
                    {
                        "tag": "pinkfloralwrapdress",
                        "sortOrder": "92"
                    },
                    {
                        "tag": "burgundychenillejumper",
                        "sortOrder": "92"
                    },
                    {
                        "tag": "burgundyembellishedbag",
                        "sortOrder": "92"
                    },
                    {
                        "tag": "blackplatformboots",
                        "sortOrder": "92"
                    },
                    {
                        "tag": "whitecrochetblouse",
                        "sortOrder": "92"
                    },
                    {
                        "tag": "blacklacethighhighboots",
                        "sortOrder": "92"
                    },
                    {
                        "tag": "mirrorboots",
                        "sortOrder": "92"
                    },
                    {
                        "tag": "colourblockjumper",
                        "sortOrder": "92"
                    },
                    {
                        "tag": "blacklacebodysuit",
                        "sortOrder": "92"
                    },
                    {
                        "tag": "metallicsilversandals",
                        "sortOrder": "92"
                    },
                    {
                        "tag": "greyfluffyhandbag",
                        "sortOrder": "92"
                    },
                    {
                        "tag": "embroideredblockheels",
                        "sortOrder": "92"
                    },
                    {
                        "tag": "cagedhighheelsandals",
                        "sortOrder": "92"
                    },
                    {
                        "tag": "nudestilettoheels",
                        "sortOrder": "92"
                    },
                    {
                        "tag": "cocodiamantechoker",
                        "sortOrder": "92"
                    },
                    {
                        "tag": "fluffyclutch",
                        "sortOrder": "92"
                    },
                    {
                        "tag": "tikabodysuit",
                        "sortOrder": "92"
                    },
                    {
                        "tag": "satintiefrontblouse",
                        "sortOrder": "92"
                    },
                    {
                        "tag": "laceupheeledboots",
                        "sortOrder": "92"
                    },
                    {
                        "tag": "pinkfluffycoat",
                        "sortOrder": "92"
                    },
                    {
                        "tag": "satinembroideredbomber",
                        "sortOrder": "92"
                    },
                    {
                        "tag": "plungesequinmaxi",
                        "sortOrder": "92"
                    },
                    {
                        "tag": "roseskaterdress",
                        "sortOrder": "92"
                    },
                    {
                        "tag": "redmeshrucheddress",
                        "sortOrder": "92"
                    },
                    {
                        "tag": "ginghamfrilltrousers",
                        "sortOrder": "92"
                    },
                    {
                        "tag": "blackskinnyjeans",
                        "sortOrder": "92"
                    },
                    {
                        "tag": "tanxbody",
                        "sortOrder": "92"
                    },
                    {
                        "tag": "whitetassleclutch",
                        "sortOrder": "92"
                    },
                    {
                        "tag": "tasselearrings",
                        "sortOrder": "92"
                    },
                    {
                        "tag": "sassy1",
                        "sortOrder": "92"
                    },
                    {
                        "tag": "trcukx",
                        "sortOrder": "92"
                    },
                    {
                        "tag": "sexylacey",
                        "sortOrder": "93"
                    },
                    {
                        "tag": "victoriahearn",
                        "sortOrder": "94"
                    },
                    {
                        "tag": "hotcoord",
                        "sortOrder": "95"
                    },
                    {
                        "tag": "laceyslay3",
                        "sortOrder": "96"
                    },
                    {
                        "tag": "sequindress",
                        "sortOrder": "97"
                    },
                    {
                        "tag": "laceyslay4",
                        "sortOrder": "98"
                    },
                    {
                        "tag": "amariaguedes",
                        "sortOrder": "99"
                    },
                    {
                        "tag": "gemmaboots",
                        "sortOrder": "99"
                    },
                    {
                        "tag": "killerlook",
                        "sortOrder": "99"
                    },
                    {
                        "tag": "blazerlook",
                        "sortOrder": "99"
                    },
                    {
                        "tag": "adrianagolima",
                        "sortOrder": "99"
                    },
                    {
                        "tag": "nicolatyas",
                        "sortOrder": "99"
                    },
                    {
                        "tag": "glamzambag",
                        "sortOrder": "99"
                    },
                    {
                        "tag": "youthlirtin",
                        "sortOrder": "99"
                    },
                    {
                        "tag": "whiteruffleskirt",
                        "sortOrder": "100"
                    },
                    {
                        "tag": "blackrufflehemtrousers",
                        "sortOrder": "100"
                    },
                    {
                        "tag": "denimjacket",
                        "sortOrder": "100"
                    },
                    {
                        "tag": "silksportyduster",
                        "sortOrder": "100"
                    },
                    {
                        "tag": "burgundystudxbody",
                        "sortOrder": "100"
                    },
                    {
                        "tag": "sequincoord",
                        "sortOrder": "100"
                    },
                    {
                        "tag": "satinplaysuit",
                        "sortOrder": "100"
                    },
                    {
                        "tag": "lacebardot",
                        "sortOrder": "100"
                    },
                    {
                        "tag": "mustardcrop",
                        "sortOrder": "100"
                    },
                    {
                        "tag": "blackstudheels",
                        "sortOrder": "100"
                    },
                    {
                        "tag": "metallicblockheels",
                        "sortOrder": "100"
                    },
                    {
                        "tag": "metallicsidesplit",
                        "sortOrder": "100"
                    },
                    {
                        "tag": "popperjoggers",
                        "sortOrder": "100"
                    },
                    {
                        "tag": "lacebodysuit",
                        "sortOrder": "100"
                    },
                    {
                        "tag": "frillheels",
                        "sortOrder": "100"
                    },
                    {
                        "tag": "shimmerdress",
                        "sortOrder": "100"
                    },
                    {
                        "tag": "jerseydress",
                        "sortOrder": "100"
                    },
                    {
                        "tag": "snakeclutch",
                        "sortOrder": "100"
                    },
                    {
                        "tag": "militarybomber",
                        "sortOrder": "100"
                    },
                    {
                        "tag": "bandeaucoord",
                        "sortOrder": "100"
                    },
                    {
                        "tag": "chiffonplaysuit",
                        "sortOrder": "100"
                    },
                    {
                        "tag": "stripeshirt",
                        "sortOrder": "100"
                    },
                    {
                        "tag": "metallicboots",
                        "sortOrder": "100"
                    },
                    {
                        "tag": "bambooclutch",
                        "sortOrder": "100"
                    },
                    {
                        "tag": "whitetrousers",
                        "sortOrder": "100"
                    },
                    {
                        "tag": "redboots",
                        "sortOrder": "100"
                    },
                    {
                        "tag": "laceybodysuit",
                        "sortOrder": "100"
                    },
                    {
                        "tag": "glitterdress",
                        "sortOrder": "100"
                    },
                    {
                        "tag": "denimboots",
                        "sortOrder": "100"
                    },
                    {
                        "tag": "blushsatinboots",
                        "sortOrder": "100"
                    },
                    {
                        "tag": "blackboxclutch",
                        "sortOrder": "100"
                    },
                    {
                        "tag": "tearstoneearrings",
                        "sortOrder": "100"
                    },
                    {
                        "tag": "studdedjeans",
                        "sortOrder": "100"
                    },
                    {
                        "tag": "chainmailtop",
                        "sortOrder": "100"
                    },
                    {
                        "tag": "blueblockheels",
                        "sortOrder": "100"
                    },
                    {
                        "tag": "openbackjumpsuit",
                        "sortOrder": "100"
                    },
                    {
                        "tag": "fauxfurxbody",
                        "sortOrder": "100"
                    },
                    {
                        "tag": "flowerwatch",
                        "sortOrder": "100"
                    },
                    {
                        "tag": "itslaurendotcom",
                        "sortOrder": "100"
                    },
                    {
                        "tag": "katiemills1",
                        "sortOrder": "101"
                    },
                    {
                        "tag": "lemybeauty1",
                        "sortOrder": "101"
                    },
                    {
                        "tag": "chloehayward",
                        "sortOrder": "102"
                    },
                    {
                        "tag": "zoehamilton",
                        "sortOrder": "102"
                    },
                    {
                        "tag": "miamc",
                        "sortOrder": "102"
                    },
                    {
                        "tag": "jessicamichelle",
                        "sortOrder": "102"
                    },
                    {
                        "tag": "katiemills",
                        "sortOrder": "102"
                    },
                    {
                        "tag": "michelle1",
                        "sortOrder": "103"
                    },
                    {
                        "tag": "kyanna5",
                        "sortOrder": "103"
                    },
                    {
                        "tag": "daisey4",
                        "sortOrder": "105"
                    },
                    {
                        "tag": "lemybeauty2",
                        "sortOrder": "107"
                    },
                    {
                        "tag": "sylvija3",
                        "sortOrder": "110"
                    },
                    {
                        "tag": "daisey3",
                        "sortOrder": "110"
                    },
                    {
                        "tag": "sylvija",
                        "sortOrder": "120"
                    },
                    {
                        "tag": "tanyarose1",
                        "sortOrder": "125"
                    },
                    {
                        "tag": "meganb",
                        "sortOrder": "130"
                    },
                    {
                        "tag": "daisey",
                        "sortOrder": "133"
                    },
                    {
                        "tag": "maggiepetrova",
                        "sortOrder": "134"
                    },
                    {
                        "tag": "laurengemma",
                        "sortOrder": "135"
                    },
                    {
                        "tag": "laceymontgomery3",
                        "sortOrder": "140"
                    },
                    {
                        "tag": "kadymcdermott",
                        "sortOrder": "150"
                    },
                    {
                        "tag": "brogan2",
                        "sortOrder": "200"
                    },
                    {
                        "tag": "leigh4",
                        "sortOrder": "205"
                    },
                    {
                        "tag": "laurynellis",
                        "sortOrder": "210"
                    },
                    {
                        "tag": "ameliarosepark1",
                        "sortOrder": "220"
                    },
                    {
                        "tag": "meganb3",
                        "sortOrder": "222"
                    },
                    {
                        "tag": "millyhobbs",
                        "sortOrder": "225"
                    },
                    {
                        "tag": "aimieplaysuit",
                        "sortOrder": "230"
                    },
                    {
                        "tag": "sophie3",
                        "sortOrder": "235"
                    },
                    {
                        "tag": "ashleighdefty",
                        "sortOrder": "250"
                    },
                    {
                        "tag": "laceymontgomery",
                        "sortOrder": "300"
                    },
                    {
                        "tag": "laurenjames2",
                        "sortOrder": "350"
                    },
                    {
                        "tag": "kimya4",
                        "sortOrder": "370"
                    },
                    {
                        "tag": "oliviabuck",
                        "sortOrder": "400"
                    },
                    {
                        "tag": "hazelplaysuit",
                        "sortOrder": "450"
                    },
                    {
                        "tag": "beth2",
                        "sortOrder": "500"
                    },
                    {
                        "tag": "courtneyparry2",
                        "sortOrder": "550"
                    },
                    {
                        "tag": "victoriarosex2",
                        "sortOrder": "600"
                    },
                    {
                        "tag": "aimiesullivan",
                        "sortOrder": "650"
                    },
                    {
                        "tag": "monika",
                        "sortOrder": "700"
                    },
                    {
                        "tag": "charlotte",
                        "sortOrder": "730"
                    },
                    {
                        "tag": "avapoppy1",
                        "sortOrder": "750"
                    },
                    {
                        "tag": "leighwoodz1",
                        "sortOrder": "800"
                    },
                    {
                        "tag": "hazelwood",
                        "sortOrder": "850"
                    },
                    {
                        "tag": "avapoppy2",
                        "sortOrder": "900"
                    },
                    {
                        "tag": "mariahmead",
                        "sortOrder": "950"
                    },
                    {
                        "tag": "courtneyparry",
                        "sortOrder": "1000"
                    },
                    {
                        "tag": "aimiesullivan2",
                        "sortOrder": "1100"
                    },
                    {
                        "tag": "kyannamoran",
                        "sortOrder": "1150"
                    },
                    {
                        "tag": "meganbayes",
                        "sortOrder": "1200"
                    },
                    {
                        "tag": "jillgourlay",
                        "sortOrder": "1250"
                    },
                    {
                        "tag": "aimiesullivan3",
                        "sortOrder": "1300"
                    },
                    {
                        "tag": "kimya2",
                        "sortOrder": "1350"
                    },
                    {
                        "tag": "naomistyle",
                        "sortOrder": "1400"
                    },
                    {
                        "tag": "khloekardashian",
                        "sortOrder": "1450"
                    },
                    {
                        "tag": "victoriarosex",
                        "sortOrder": "1500"
                    },
                    {
                        "tag": "rachaelcasey",
                        "sortOrder": "1550"
                    },
                    {
                        "tag": "elesha1",
                        "sortOrder": "1650"
                    },
                    {
                        "tag": "livtraynor",
                        "sortOrder": "1650"
                    },
                    {
                        "tag": "rachaelcasey1",
                        "sortOrder": "1700"
                    },
                    {
                        "tag": "felecia2",
                        "sortOrder": "1750"
                    },
                    {
                        "tag": "laceymontgomery2",
                        "sortOrder": "1800"
                    },
                    {
                        "tag": "parisnelson",
                        "sortOrder": "1850"
                    },
                    {
                        "tag": "laurenjames",
                        "sortOrder": "1900"
                    },
                    {
                        "tag": "feliciadeyinka",
                        "sortOrder": "1950"
                    }
                ]
            }
        ]
   }
]